{
    "globals": {
        "ciLoginUrl": "http://localhost:3000/allProjects.action",
        "ciBrowseUrl": "http://localhost:3000/browse/",
        "ciLatestBuildUrl": "http://localhost:3000/rest/api/latest/plan/",
        "ciLatestFinishedBuildUrl": [
            "http://localhost:3000/rest/api/latest/result/",
            "/latest"
        ],
        "ciSearchUrl": [
            "http://localhost:3000/rest/api/latest/search/branches?searchTerm=",
            "&start-index=0&max-results=1&includeMasterBranch=true&branchNameOnly=true&masterPlanKey="
        ],
        "product_masterPlanKey": "product",
        "ciBuildingKey": "isBuilding",
        "ciBuildStateKey": "buildState",
        "uiVerFiles": ["metaData.json"],
        "productNameFile": "metaData.json",
        "productNameKey": "name",
        "productUiVerKey": "version",
        "hostFiles": ["host.js"],
        "productHostKeys": ["environment"],
        "product_dev_autoCompleteSvcVerUrl": "http://localhost:3000/api/AutoCompleteSvc",
        "product_dev_platformVerUrl": "http://localhost:3000/api/platform",
        "product_dev_srchVerUrl": "http://localhost:3000/api/srch",
        "product_dev_emailTempUrl": "http://localhost:3000/api/emailSvc/TEMPLATES",
        "autoCompleteVerKey": ["data.versions[0].versionString"],
        "platformVerKey": ["data.versions[0].versionString"],
        "srchVerKey": ["data.versions[0].versionString"],
        "auxDataUrl": "<a href='http://localhost:3000/aux/' class='aux_anchor'>   &#129109</a>",
        "itsUrl": [
            "http://localhost:3000/its/",
            "browse/",
            "secure/StructureBoard.jspa"
        ],
        "itsCreateDefectUrl": "http://localhost:3000/create.html",
        "itsCreateBugReportUrl": "http://localhost:3000/create.html?parentIssueId=",
        "itsGetIssueIdUrl": "http://localhost:3000/its/rest/api/2/issue/",
        "itsDefaultProject": "ITS",
        "cdSearchUrl": [
            "http://localhost:3000/cd/api/search/",
            "?type=",
            "&count=4&next=null&search="
        ],
        "cdLoginUrl": "http://localhost:3000/cd",
        "cdDeliveriesUrl": "http://localhost:3000/cd/api/delivery/list",
        "cdDeliveryKeys": [
            "body",
            "packageName",
            "deliveryName",
            "primes",
            "lives",
            "slots",
            "url",
            "name"
        ],
        "cdBuildKeys": [
            "body.items",
            "version",
            "slots.env.buildNumber",
            "slots.env.state",
            "slots.env.buildNumbers"
        ],
        "emailTempKeys": [
            "data.versions",
            "versionString"
        ],
        "ciPlanKey": ["searchResults[0].id"]
    }
}
